…
Ejemplo de descarga de microdatos

``` r
# Cargo la libreria
library(eph)

base_individual <- get_microdata(
  year = 2018:2019, # especifco el año
  trimester = 1, # el trimestre
  type = "individual", # y el tipo de base
  vars = c("PONDERA", "ESTADO", "CAT_OCUP")
) # opcionalmente, puedo especificar las variables que deseo utilizar.

base_individual
#> # A tibble: 117,320 × 3
#>    PONDERA ESTADO CAT_OCUP
#>      <int>  <int>    <int>
#>  1     684      4        0
#>  2    1008      3        0
#>  3    1008      1        1
#>  4    1008      2        0
#>  5     886      1        2
#>  6     594      3        0
#>  7     594      3        0
#>  8     546      3        0
#>  9     509      1        3
#> 10     509      1        3
#> # … with 117,310 more rows
```
…
