Ejemplo de uso del paquete eph
…
pool <- organize_panels(bases=bases$microdata, variables=c('ESTADO','PONDERA'),
                        window='trimestral')
#> Joining, by = c("CODUSU", "NRO_HOGAR", "COMPONENTE", "Periodo")

Los argumentos principales de la función organize_panelsson:

bases: una lista con las bases de datos a poolear

variables: string con los nombre de la variables de interés

window: un string que indique la ventana de distancia de las observaciones (anual) o (trimestral)

pool
#> # A tibble: 75,308 x 17
#>    CODUSU NRO_HOGAR COMPONENTE  ANO4 TRIMESTRE  CH04  CH06 ESTADO PONDERA
#>    <chr>      <int>      <int> <int>     <int> <int> <int>  <int>   <int>
#>  1 TQRMN~         1          1  2018         1     2    67      3    1008
#>  2 TQRMN~         1          2  2018         1     1    81      1    1008
#>  3 TQRMN~         1          3  2018         1     2    22      2    1008
#>  4 TQRMN~         1          1  2018         1     1    62      1     886
#>  5 TQRMN~         1          1  2018         1     1    83      3     594
#>  6 TQRMN~         1          2  2018         1     2    79      3     594
#>  7 TQRMN~         1          1  2018         1     2    79      3     700
#>  8 TQRMN~         1          1  2018         1     1    38      1     700
#>  9 TQRMN~         1          2  2018         1     2    33      1     700
#> 10 TQRMN~         1          1  2018         1     1    64      1     546
#> # ... with 75,298 more rows, and 8 more variables: Periodo <yearqtr>,
#> #   ANO4_t1 <int>, TRIMESTRE_t1 <int>, CH04_t1 <int>, CH06_t1 <int>,
#> #   ESTADO_t1 <int>, PONDERA_t1 <int>, consistencia <lgl>
…
