Ejemplo de uso del paquete `eph` • eph
…
#> Warning in bind_rows_(x, .id): binding character and factor vector,
#> coercing into character vector

#> Warning in bind_rows_(x, .id): binding character and factor vector,
#> coercing into character vector

#> Warning in bind_rows_(x, .id): binding character and factor vector,
#> coercing into character vector

#> Warning in bind_rows_(x, .id): binding character and factor vector,
#> coercing into character vector
#> Joining, by = c("CODUSU", "NRO_HOGAR", "COMPONENTE", "Id_Trimestre")

pool
#> # A tibble: 75,308 x 17
#>    CODUSU NRO_HOGAR COMPONENTE  ANO4 TRIMESTRE  CH04  CH06 ESTADO Trimestre
#>    <chr>      <int>      <int> <int>     <int> <int> <int>  <int> <chr>    
#>  1 TQRMN…         1          1  2018         1     2    67      3 2018_1   
#>  2 TQRMN…         1          2  2018         1     1    81      1 2018_1   
#>  3 TQRMN…         1          3  2018         1     2    22      2 2018_1   
#>  4 TQRMN…         1          1  2018         1     1    62      1 2018_1   
#>  5 TQRMN…         1          1  2018         1     1    83      3 2018_1   
#>  6 TQRMN…         1          2  2018         1     2    79      3 2018_1   
#>  7 TQRMN…         1          1  2018         1     2    79      3 2018_1   
#>  8 TQRMN…         1          1  2018         1     1    38      1 2018_1   
#>  9 TQRMN…         1          2  2018         1     2    33      1 2018_1   
#> 10 TQRMN…         1          1  2018         1     1    64      1 2018_1   
#> # … with 75,298 more rows, and 8 more variables: Id_Trimestre <dbl>,
#> #   ANO4_t1 <int>, TRIMESTRE_t1 <int>, CH04_t1 <int>, CH06_t1 <int>,
#> #   ESTADO_t1 <int>, Trimestre_t1 <chr>, consistencia <lgl>
…
