Estimación de Pobreza e Indigencia • eph
…
#>  3  2016         4        0.300          0.0568
#>  4  2017         1        0.277          0.0613
#>  5  2017         2        0.293          0.0618
#>  6  2017         3        0.249          0.0505
#>  7  2017         4        0.263          0.0447
#>  8  2018         1        0.256          0.0492
#>  9  2018         2        0.290          0.0484
#> 10  2018         3        0.281          0.0596
#> 11  2018         4        0.355          0.0737
#> 12  2019         1        0.342          0.0709
#> 13  2019         2        0.364          0.0812
#> 14  2019         3        0.331          0.0762
#> 15  2019         4        0.383          0.0866
bases_pobreza
#> # A tibble: 877,305 x 20
#>     year trimester wave  type   ANO4 TRIMESTRE REGION CODUSU NRO_HOGAR  CH04
#>    <int>     <int> <lgl> <fct> <int>     <int>  <dbl> <chr>      <int> <dbl>
#>  1  2017         1 NA    indi…  2017         1     43 TQRMN…         1     2
#>  2  2017         1 NA    indi…  2017         1     43 TQRMN…         1     2
#>  3  2017         1 NA    indi…  2017         1     43 TQRMN…         1     1
#>  4  2017         1 NA    indi…  2017         1     43 TQRMN…         1     2
#>  5  2017         1 NA    indi…  2017         1     43 TQRMN…         1     1
#>  6  2017         1 NA    indi…  2017         1     43 TQRMN…         1     2
#>  7  2017         1 NA    indi…  2017         1     43 TQRMN…         1     2
#>  8  2017         1 NA    indi…  2017         1     43 TQRMN…         1     1
#>  9  2017         1 NA    indi…  2017         1     43 TQRMN…         1     1
#> 10  2017         1 NA    indi…  2017         1     43 TQRMN…         1     2
#> # … with 877,295 more rows, and 10 more variables: CH06 <dbl>, ITF <int>,
#> #   PONDIH <int>, PP07H <int>, PP04D_COD <chr>, region <chr>,
#> #   adequi_hogar <dbl>, CBA_hogar <dbl>, CBT_hogar <dbl>, situacion <chr>
…
